<?xml version="1.0" encoding="UTF-8" standalone="no"?>
<!-- Created with Inkscape (http://www.inkscape.org/) -->

<svg
   xmlns:dc="http://purl.org/dc/elements/1.1/"
   xmlns:cc="http://creativecommons.org/ns#"
   xmlns:rdf="http://www.w3.org/1999/02/22-rdf-syntax-ns#"
   xmlns:svg="http://www.w3.org/2000/svg"
   xmlns="http://www.w3.org/2000/svg"
   xmlns:sodipodi="http://sodipodi.sourceforge.net/DTD/sodipodi-0.dtd"
   xmlns:inkscape="http://www.inkscape.org/namespaces/inkscape"
   width="143mm"
   height="134mm"
   viewBox="0 0 506.69291 474.80315"
   id="svg2"
   version="1.1"
   inkscape:version="0.91 r13725"
   sodipodi:docname="contour-block.svg"
   inkscape:export-filename="/home/philtweir/Work/Flax_and_Teal/Sync/Clients/Ogg/Project/orp-frontend/images/layermenu/contour-block.png"
   inkscape:export-xdpi="25.4"
   inkscape:export-ydpi="25.4">
  <defs
     id="defs4" />
  <sodipodi:namedview
     id="base"
     pagecolor="#ffffff"
     bordercolor="#666666"
     borderopacity="1.0"
     inkscape:pageopacity="0.0"
     inkscape:pageshadow="2"
     inkscape:zoom="0.7"
     inkscape:cx="28.917019"
     inkscape:cy="436.74916"
     inkscape:document-units="px"
     inkscape:current-layer="layer1"
     showgrid="false"
     inkscape:window-width="1920"
     inkscape:window-height="1016"
     inkscape:window-x="0"
     inkscape:window-y="27"
     inkscape:window-maximized="1" />
  <metadata
     id="metadata7">
    <rdf:RDF>
      <cc:Work
         rdf:about="">
        <dc:format>image/svg+xml</dc:format>
        <dc:type
           rdf:resource="http://purl.org/dc/dcmitype/StillImage" />
        <dc:title />
      </cc:Work>
    </rdf:RDF>
  </metadata>
  <g
     inkscape:label="Layer 1"
     inkscape:groupmode="layer"
     id="layer1"
     transform="translate(0,-577.55906)">
    <g
       id="g4866"
       transform="translate(-5.4771307,4.4678179)">
      <rect
         y="611.47357"
         x="41.571583"
         height="122.94901"
         width="132.28934"
         id="rect3336"
         style="fill:#000080;fill-opacity:0.13020833;stroke:none;stroke-width:3.42020655" />
      <rect
         y="610.54785"
         x="193.64038"
         height="122.94901"
         width="132.28934"
         id="rect3336-2"
         style="fill:#000080;fill-opacity:0.52083333;stroke:none;stroke-width:3.42020655" />
      <rect
         y="610.54785"
         x="343.08572"
         height="122.94901"
         width="132.28934"
         id="rect3336-7"
         style="fill:#000080;stroke:none;stroke-width:3.42020655" />
      <rect
         y="748.55127"
         x="42.093433"
         height="122.94901"
         width="132.28934"
         id="rect3336-0"
         style="fill:#000080;fill-opacity:0.30729167;stroke:none;stroke-width:3.42020655" />
      <rect
         y="748.55127"
         x="194.10739"
         height="122.94901"
         width="132.28934"
         id="rect3336-9"
         style="fill:#000080;fill-opacity:0.52083333;stroke:none;stroke-width:3.42020655" />
      <rect
         y="748.55127"
         x="342.85223"
         height="122.94901"
         width="132.28934"
         id="rect3336-3"
         style="fill:#000080;stroke:none;stroke-width:3.42020655" />
      <rect
         y="887.48877"
         x="44.662029"
         height="122.94901"
         width="132.28934"
         id="rect3336-6"
         style="fill:#000080;stroke:none;stroke-width:3.42020655" />
      <rect
         y="887.48877"
         x="193.40686"
         height="122.94901"
         width="132.28934"
         id="rect3336-06"
         style="fill:#000080;stroke:none;stroke-width:3.42020655" />
      <rect
         y="885.85425"
         x="343.78625"
         height="122.94901"
         width="132.28934"
         id="rect3336-26"
         style="fill:#000080;stroke:none;stroke-width:3.42020655" />
    </g>
  </g>
</svg>
