<?xml version="1.0" encoding="utf-8"?>
<!-- Generator: Adobe Illustrator 16.0.0, SVG Export Plug-In . SVG Version: 6.00 Build 0)  -->
<!DOCTYPE svg PUBLIC "-//W3C//DTD SVG 1.1//EN" "http://www.w3.org/Graphics/SVG/1.1/DTD/svg11.dtd">
<svg version="1.1" id="Layer_1" xmlns="http://www.w3.org/2000/svg" xmlns:xlink="http://www.w3.org/1999/xlink" x="0px" y="0px"
	 width="70px" height="118px" viewBox="0 0 70 118" enable-background="new 0 0 70 118" xml:space="preserve">
<g>
	<defs>
		<rect id="SVGID_1_" x="-0.205" y="-0.38" width="69.487" height="117.702"/>
	</defs>
	<clipPath id="SVGID_2_">
		<use xlink:href="#SVGID_1_"  overflow="visible"/>
	</clipPath>
	<path clip-path="url(#SVGID_2_)" fill="#7483BF" d="M34.54-0.379c-19.188,0-34.742,15.554-34.744,34.742
		c0-0.634,0.02-1.263,0.053-1.888c1.427,20.598,34.691,81.657,34.691,81.657s33.262-61.059,34.69-81.657
		c0.033,0.625,0.053,1.254,0.053,1.887C69.28,15.175,53.726-0.379,34.54-0.379 M1.299,36.27c-0.041-0.68-0.069-1.365-0.069-2.055
		c0-18.396,14.913-33.309,33.309-33.309c18.395,0,33.307,14.913,33.307,33.309c0,0.69-0.027,1.375-0.068,2.055
		C66.716,18.832,52.243,5.017,34.54,5.017C16.834,5.017,2.362,18.832,1.299,36.27 M33.567,63.063
		C18.549,62.551,6.531,50.216,6.531,35.073c0-15.468,12.539-28.007,28.008-28.007c15.297,0,27.729,12.263,28.002,27.495v0.001
		c0,0.011,0,0.023,0,0.034v0.009c0,0.011,0.002,0.021,0.002,0.032v0.009c0,0.01,0,0.021,0,0.031v0.009c0,0.01,0,0.022,0,0.032
		c0,0.002,0,0.004,0,0.006c0,0.02,0,0.039,0.002,0.059v0.015c0,0.007,0,0.016,0,0.022v0.021v0.021c0,0.007,0,0.015,0,0.022v0.02
		v0.024v0.018c0,0.008,0,0.017,0,0.026v0.016v0.03v0.013v0.042c0,15.468-12.539,28.008-28.006,28.008h-0.062h-0.014
		c-0.021,0-0.041-0.001-0.062-0.001h-0.007c-0.018,0-0.038,0-0.056,0h-0.014c-0.021,0-0.041,0-0.061-0.001h-0.009
		c-0.018,0-0.038,0-0.057,0c-0.003,0-0.006,0-0.01-0.001c-0.022,0-0.041,0-0.063,0c-0.003,0-0.006,0-0.009-0.001
		c-0.019,0-0.038,0-0.056,0c-0.003-0.001-0.007-0.001-0.01-0.001c-0.021,0-0.042,0-0.063-0.001h-0.01c-0.02,0-0.04-0.001-0.06-0.001
		h-0.004c-0.021-0.001-0.044-0.001-0.066-0.003c-0.002,0-0.003,0-0.005,0c-0.044-0.001-0.089-0.002-0.133-0.003h-0.006
		C33.657,63.066,33.612,63.065,33.567,63.063L33.567,63.063z M69.282,34.364c0,19.188-34.743,82.958-34.743,82.958
		S-0.205,53.552-0.205,34.364c0,19.188,34.744,82.958,34.744,82.958S69.282,53.552,69.282,34.364"/>
</g>
<g>
	<defs>
		<path id="SVGID_3_" d="M34.263,63.079c0.02,0,0.041,0,0.061,0C34.304,63.079,34.283,63.079,34.263,63.079 M34.366,63.08
			c-0.009,0-0.018-0.001-0.028-0.001C34.347,63.079,34.357,63.08,34.366,63.08 M34.254,63.079c-0.019,0-0.038-0.001-0.057-0.001
			C34.216,63.078,34.235,63.079,34.254,63.079 M34.125,63.077c0.011,0,0.021,0,0.031,0C34.146,63.077,34.135,63.077,34.125,63.077
			 M34.188,63.078c-0.011,0-0.021,0-0.032-0.001C34.167,63.078,34.176,63.078,34.188,63.078 M34.115,63.077
			c-0.018,0-0.038-0.001-0.056-0.001C34.078,63.076,34.097,63.077,34.115,63.077 M34.049,63.076c-0.021,0-0.041-0.001-0.063-0.001
			C34.007,63.075,34.028,63.076,34.049,63.076 M33.917,63.074c0.01,0,0.02,0,0.03,0C33.937,63.074,33.926,63.074,33.917,63.074
			 M33.977,63.075c-0.01,0-0.02,0-0.03-0.001C33.957,63.075,33.965,63.075,33.977,63.075 M33.913,63.074
			c-0.011-0.001-0.021-0.001-0.033-0.001C33.892,63.073,33.901,63.073,33.913,63.074 M33.879,63.073
			c-0.011,0-0.022-0.001-0.033-0.001C33.857,63.072,33.869,63.073,33.879,63.073 M33.84,63.072
			c-0.044-0.001-0.088-0.002-0.132-0.004C33.752,63.07,33.796,63.071,33.84,63.072 M33.704,63.068
			c-0.045-0.002-0.09-0.003-0.135-0.004C33.613,63.065,33.657,63.066,33.704,63.068 M33.567,63.064
			c-0.04-0.001-0.079-0.003-0.117-0.005C33.488,63.062,33.527,63.063,33.567,63.064 M33.45,63.06c-0.012,0-0.023-0.001-0.035-0.001
			C33.426,63.059,33.438,63.06,33.45,63.06 M33.416,63.059c-0.018-0.001-0.038-0.002-0.057-0.002
			C33.377,63.057,33.396,63.058,33.416,63.059 M33.358,63.057c-0.019-0.001-0.038-0.002-0.057-0.002
			C33.32,63.055,33.339,63.056,33.358,63.057 M33.301,63.055c-0.005-0.001-0.011-0.001-0.017-0.001
			C33.291,63.054,33.295,63.054,33.301,63.055 M33.284,63.054c-0.022-0.001-0.046-0.004-0.069-0.005
			C33.238,63.05,33.261,63.053,33.284,63.054 M33.215,63.049c-0.002,0-0.005,0-0.007,0C33.21,63.049,33.213,63.049,33.215,63.049
			 M33.208,63.049c-0.008,0-0.015,0-0.022-0.001C33.193,63.049,33.2,63.049,33.208,63.049 M33.187,63.048
			c-0.013-0.001-0.026-0.001-0.04-0.001C33.159,63.047,33.173,63.047,33.187,63.048 M33.146,63.047
			c-0.018-0.001-0.036-0.002-0.054-0.003C33.11,63.045,33.128,63.046,33.146,63.047 M33.092,63.044
			c-0.018-0.001-0.036-0.002-0.055-0.004C33.055,63.042,33.074,63.043,33.092,63.044 M33.038,63.04c-0.01,0-0.019-0.001-0.029-0.001
			C33.019,63.039,33.027,63.04,33.038,63.04 M33.008,63.039c-0.028-0.001-0.057-0.003-0.085-0.005
			C32.951,63.036,32.979,63.038,33.008,63.039 M32.923,63.034c-0.015-0.001-0.03-0.002-0.046-0.003
			C32.894,63.032,32.908,63.033,32.923,63.034 M32.877,63.031c-0.017-0.001-0.034-0.001-0.051-0.002
			C32.843,63.03,32.86,63.03,32.877,63.031 M32.826,63.029c-0.017-0.001-0.034-0.002-0.051-0.003
			C32.792,63.027,32.809,63.028,32.826,63.029 M32.775,63.026c-0.014-0.001-0.028-0.002-0.042-0.003
			C32.748,63.024,32.761,63.025,32.775,63.026 M32.733,63.023c-0.025-0.002-0.049-0.003-0.075-0.005
			C32.685,63.021,32.708,63.021,32.733,63.023 M32.658,63.019c-0.014-0.001-0.03-0.002-0.045-0.003
			C32.628,63.017,32.644,63.018,32.658,63.019 M32.613,63.016c-0.035-0.003-0.069-0.004-0.104-0.008
			C32.544,63.012,32.579,63.013,32.613,63.016 M32.509,63.008c-0.006-0.001-0.013-0.001-0.02-0.001
			C32.497,63.007,32.502,63.007,32.509,63.008 M32.489,63.007c-0.006-0.001-0.013-0.001-0.02-0.002
			C32.477,63.006,32.483,63.006,32.489,63.007 M32.469,63.005c-0.026-0.002-0.051-0.004-0.077-0.006
			C32.417,63.001,32.443,63.003,32.469,63.005 M32.393,62.999c-0.003,0-0.005,0-0.008-0.001
			C32.387,62.999,32.39,62.999,32.393,62.999 M32.384,62.998c-0.003,0-0.005,0-0.008,0C32.379,62.998,32.381,62.998,32.384,62.998
			 M32.376,62.998L32.376,62.998L32.376,62.998 M32.375,62.998c-0.007-0.001-0.014-0.001-0.021-0.002
			C32.361,62.997,32.369,62.997,32.375,62.998 M32.354,62.996c-0.002,0-0.005,0-0.007-0.001
			C32.35,62.996,32.353,62.996,32.354,62.996 M32.347,62.995c-0.007,0-0.013,0-0.02-0.001
			C32.334,62.995,32.341,62.995,32.347,62.995 M32.328,62.994c-0.004,0-0.007,0-0.011-0.001
			C32.32,62.994,32.323,62.994,32.328,62.994 M32.316,62.993c-0.006,0-0.013,0-0.019-0.001
			C32.303,62.993,32.311,62.993,32.316,62.993 M32.297,62.992c-0.016-0.001-0.033-0.003-0.05-0.004
			C32.263,62.989,32.28,62.991,32.297,62.992 M32.248,62.988c-0.003,0-0.005,0-0.008-0.001
			C32.242,62.988,32.246,62.988,32.248,62.988 M32.239,62.987c-0.005,0-0.011-0.001-0.016-0.001
			C32.229,62.986,32.234,62.987,32.239,62.987 M32.224,62.986c-0.005-0.001-0.011-0.001-0.016-0.002
			C32.212,62.985,32.217,62.985,32.224,62.986 M32.208,62.984c-0.003,0-0.006,0-0.008,0C32.201,62.984,32.205,62.984,32.208,62.984
			 M32.199,62.984c-0.023-0.002-0.045-0.004-0.068-0.006C32.154,62.98,32.176,62.982,32.199,62.984 M32.131,62.979
			c-0.015-0.002-0.031-0.002-0.047-0.004C32.101,62.977,32.116,62.977,32.131,62.979 M32.084,62.975
			c-0.033-0.003-0.066-0.006-0.1-0.009C32.019,62.969,32.051,62.972,32.084,62.975 M31.984,62.966
			c-0.015-0.002-0.031-0.004-0.046-0.005C31.954,62.962,31.968,62.964,31.984,62.966 M31.938,62.961
			c-0.025-0.003-0.049-0.004-0.074-0.007C31.888,62.957,31.914,62.958,31.938,62.961 M31.864,62.954
			c-0.015-0.001-0.028-0.003-0.042-0.004C31.836,62.951,31.85,62.953,31.864,62.954 M31.822,62.95
			c-0.035-0.003-0.069-0.007-0.103-0.01C31.753,62.943,31.788,62.947,31.822,62.95 M31.719,62.94
			c-0.007-0.001-0.014-0.001-0.021-0.002C31.706,62.939,31.712,62.939,31.719,62.94 M31.698,62.938
			c-0.007-0.001-0.014-0.002-0.021-0.002C31.684,62.937,31.691,62.938,31.698,62.938 M31.677,62.937
			c-0.027-0.003-0.054-0.005-0.081-0.008C31.624,62.932,31.65,62.934,31.677,62.937 M31.596,62.929
			c-0.013-0.003-0.026-0.004-0.039-0.006C31.57,62.925,31.583,62.926,31.596,62.929 M31.558,62.923
			c-0.033-0.003-0.068-0.007-0.102-0.011C31.488,62.916,31.524,62.92,31.558,62.923 M31.456,62.912
			c-0.012-0.001-0.024-0.002-0.038-0.004C31.432,62.91,31.442,62.911,31.456,62.912 M31.417,62.908
			c-0.029-0.004-0.061-0.006-0.091-0.01C31.356,62.902,31.387,62.904,31.417,62.908 M31.326,62.898
			c-0.012-0.002-0.024-0.003-0.036-0.004C31.302,62.896,31.314,62.896,31.326,62.898 M31.291,62.895
			c-0.032-0.004-0.064-0.008-0.097-0.012C31.227,62.887,31.258,62.891,31.291,62.895 M31.193,62.883
			c-0.012-0.002-0.025-0.004-0.037-0.006C31.167,62.879,31.182,62.881,31.193,62.883 M31.156,62.877
			c-0.036-0.003-0.069-0.008-0.104-0.012C31.087,62.869,31.121,62.874,31.156,62.877 M31.052,62.865
			c-0.004-0.001-0.008-0.001-0.012-0.002C31.044,62.864,31.048,62.864,31.052,62.865 M31.041,62.863c-0.004,0-0.007,0-0.011-0.001
			C31.032,62.863,31.037,62.863,31.041,62.863 M31.029,62.862c-0.033-0.004-0.067-0.008-0.1-0.013
			C30.962,62.854,30.996,62.858,31.029,62.862 M30.929,62.85c-0.005,0-0.01-0.001-0.016-0.001
			C30.918,62.849,30.923,62.85,30.929,62.85 M30.914,62.849c-0.005-0.001-0.009-0.002-0.015-0.002
			C30.903,62.847,30.908,62.848,30.914,62.849 M30.898,62.847c-0.038-0.007-0.075-0.011-0.112-0.016
			C30.823,62.836,30.86,62.84,30.898,62.847 M30.787,62.831c-0.007-0.001-0.012-0.001-0.018-0.002
			C30.774,62.83,30.779,62.83,30.787,62.831 M30.769,62.829c-0.035-0.006-0.07-0.01-0.105-0.015
			C30.697,62.819,30.733,62.823,30.769,62.829 M30.664,62.814c-0.007,0-0.014-0.002-0.021-0.003
			C30.648,62.812,30.656,62.814,30.664,62.814 M30.519,62.794c0.001,0,0.002,0,0.003,0C30.521,62.794,30.52,62.794,30.519,62.794
			 M30.643,62.812c-0.041-0.006-0.081-0.012-0.121-0.018C30.562,62.8,30.602,62.806,30.643,62.812 M30.519,62.794
			c-0.041-0.007-0.082-0.012-0.125-0.018C30.436,62.782,30.478,62.787,30.519,62.794 M30.394,62.776
			c-0.002-0.001-0.003-0.001-0.005-0.001C30.391,62.775,30.392,62.775,30.394,62.776 M30.388,62.775
			c-0.037-0.006-0.074-0.011-0.111-0.018C30.314,62.765,30.352,62.77,30.388,62.775 M30.277,62.758
			c-0.004-0.001-0.009-0.001-0.014-0.002C30.269,62.757,30.273,62.757,30.277,62.758 M34.54,63.08
			c15.467,0,28.006-12.539,28.006-28.007C62.546,50.542,50.007,63.08,34.54,63.08 M62.546,35.03v-0.013V35.03z M62.546,34.987
			v-0.016V34.987z M62.546,34.945v-0.017V34.945z M62.546,34.903v-0.02V34.903z M62.546,34.861v-0.02V34.861z M62.546,34.82
			c0-0.006,0-0.015,0-0.023C62.546,34.805,62.546,34.813,62.546,34.82 M62.546,34.783c0-0.005,0-0.009-0.002-0.014
			C62.546,34.774,62.546,34.778,62.546,34.783 M62.544,34.769c0,0,0-0.001,0-0.002C62.544,34.768,62.544,34.769,62.544,34.769
			 M62.544,34.767c0-0.005,0-0.009,0-0.014C62.544,34.758,62.544,34.762,62.544,34.767 M62.544,34.753c0-0.01,0-0.02,0-0.029
			C62.544,34.733,62.544,34.743,62.544,34.753 M62.544,34.718c0-0.011,0-0.022,0-0.032C62.544,34.696,62.544,34.707,62.544,34.718
			 M62.544,34.677c0-0.01,0-0.022,0-0.032C62.544,34.655,62.544,34.667,62.544,34.677 M62.544,34.636
			c0-0.011-0.002-0.021-0.002-0.032C62.542,34.616,62.544,34.625,62.544,34.636 M62.542,34.596c0-0.006,0-0.012,0-0.017
			C62.542,34.584,62.542,34.59,62.542,34.596 M62.542,34.579c0-0.006,0-0.012,0-0.017C62.542,34.568,62.542,34.573,62.542,34.579
			 M62.542,34.561c-0.002-0.05-0.002-0.099-0.004-0.148C62.54,34.462,62.54,34.511,62.542,34.561 M62.538,34.413
			c0-0.001,0-0.002,0-0.002C62.538,34.412,62.538,34.412,62.538,34.413 M6.531,35.073c0,14.013,10.294,25.623,23.732,27.683
			c-10.008-1.534-18.268-8.37-21.833-17.547c3.916,1.019,8.023,1.564,12.258,1.564c15.504,0,29.307-7.271,38.203-18.592
			C54.89,18.679,45.495,12.01,34.54,12.01c-14.045,0-25.523,10.959-26.367,24.791c-0.033-0.539-0.055-1.083-0.055-1.63
			C8.117,20.579,19.946,8.75,34.54,8.75c11.782,0,21.76,7.711,25.168,18.361c0.395-0.532,0.781-1.073,1.154-1.622
			c1.018,2.794,1.604,5.795,1.676,8.922C62.187,19.249,49.786,7.066,34.54,7.066C19.07,7.066,6.531,19.605,6.531,35.073"/>
	</defs>
	<clipPath id="SVGID_4_">
		<use xlink:href="#SVGID_3_"  overflow="visible"/>
	</clipPath>
	<g clip-path="url(#SVGID_4_)">
		<g>
			<defs>
				<rect id="SVGID_5_" x="6.531" y="7.066" width="56.016" height="56.014"/>
			</defs>
			<clipPath id="SVGID_6_">
				<use xlink:href="#SVGID_5_"  overflow="visible"/>
			</clipPath>
			<g clip-path="url(#SVGID_6_)">
				<defs>
					<rect id="SVGID_7_" x="6.532" y="7.066" width="56.015" height="56.014"/>
				</defs>
				<clipPath id="SVGID_8_">
					<use xlink:href="#SVGID_7_"  overflow="visible"/>
				</clipPath>
				<g clip-path="url(#SVGID_8_)">
					
						<image overflow="visible" width="234" height="234" xlink:href="8E82F936780E86D7.jpg"  transform="matrix(0.24 0 0 0.24 6.5317 7.0664)">
					</image>
				</g>
			</g>
		</g>
	</g>
</g>
<g>
	<defs>
		<path id="SVGID_9_" d="M8.117,35.171c0,0.547,0.022,1.091,0.055,1.63C9.017,22.969,20.495,12.01,34.54,12.01
			c10.956,0,20.35,6.669,24.352,16.17c0.277-0.352,0.551-0.709,0.816-1.069C56.3,16.461,46.321,8.75,34.54,8.75
			C19.946,8.75,8.117,20.579,8.117,35.171"/>
	</defs>
	<clipPath id="SVGID_10_">
		<use xlink:href="#SVGID_9_"  overflow="visible"/>
	</clipPath>
	<g clip-path="url(#SVGID_10_)">
		<g>
			<defs>
				<rect id="SVGID_11_" x="8.117" y="8.75" width="51.591" height="28.051"/>
			</defs>
			<clipPath id="SVGID_12_">
				<use xlink:href="#SVGID_11_"  overflow="visible"/>
			</clipPath>
			<g clip-path="url(#SVGID_12_)">
				<defs>
					<rect id="SVGID_13_" x="8.118" y="8.751" width="51.59" height="28.05"/>
				</defs>
				<clipPath id="SVGID_14_">
					<use xlink:href="#SVGID_13_"  overflow="visible"/>
				</clipPath>
				<g clip-path="url(#SVGID_14_)">
					
						<image overflow="visible" width="215" height="117" xlink:href="8E82F936780E86D5.jpg"  transform="matrix(0.24 0 0 0.24 8.1177 8.751)">
					</image>
				</g>
			</g>
		</g>
	</g>
</g>
<g>
	<defs>
		<path id="SVGID_15_" d="M34.396,63.08h0.006H34.396z M34.462,63.08h0.015H34.462z M34.254,63.079h0.009H34.254z M34.324,63.079
			h0.014H34.324z M34.188,63.078c0.003,0,0.007,0,0.01,0C34.195,63.078,34.19,63.078,34.188,63.078 M34.115,63.077
			c0.002,0,0.006,0,0.009,0C34.123,63.077,34.117,63.077,34.115,63.077 M34.049,63.076c0.003,0,0.007,0,0.01,0
			C34.057,63.076,34.052,63.076,34.049,63.076 M33.977,63.075h0.01H33.977z M33.913,63.074h0.003H33.913z M33.84,63.072
			c0.003,0,0.005,0,0.006,0C33.845,63.072,33.842,63.072,33.84,63.072 M33.704,63.068h0.005H33.704z M33.567,63.064L33.567,63.064
			L33.567,63.064z M62.546,35.073V35.03V35.073z M62.546,35.017v-0.03V35.017z M62.546,34.971c0-0.009,0-0.017,0-0.026
			C62.546,34.953,62.546,34.963,62.546,34.971 M62.546,34.928v-0.025V34.928z M62.546,34.883c0-0.003,0-0.006,0-0.008
			C62.546,34.877,62.546,34.88,62.546,34.883 M62.546,34.875c0,0,0,0,0-0.001C62.546,34.875,62.546,34.875,62.546,34.875
			 M62.546,34.874c0-0.001,0-0.002,0-0.003C62.546,34.872,62.546,34.873,62.546,34.874 M62.546,34.871c0-0.003,0-0.006,0-0.01
			C62.546,34.865,62.546,34.868,62.546,34.871 M62.546,34.841V34.82V34.841z M62.546,34.797v-0.014V34.797z M62.544,34.724
			c0-0.002,0-0.004,0-0.006C62.544,34.72,62.544,34.722,62.544,34.724 M62.544,34.686v-0.009V34.686z M62.544,34.646v-0.009V34.646z
			 M62.542,34.604v-0.008V34.604z M62.542,34.562v-0.001V34.562z"/>
	</defs>
	<clipPath id="SVGID_16_">
		<use xlink:href="#SVGID_15_"  overflow="visible"/>
	</clipPath>
	<g clip-path="url(#SVGID_16_)">
		<defs>
			<rect id="SVGID_17_" x="33.04" y="34.001" width="30.24" height="29.76"/>
		</defs>
		<clipPath id="SVGID_18_">
			<use xlink:href="#SVGID_17_"  overflow="visible"/>
		</clipPath>
		<g transform="matrix(1 0 0 1 3.814697e-06 7.629395e-06)" clip-path="url(#SVGID_18_)">
			
				<image overflow="visible" width="63" height="62" xlink:href="8E82F936780E86DB.jpg"  transform="matrix(0.48 0 0 -0.48 33.04 63.7607)">
			</image>
		</g>
	</g>
</g>
<g>
	<defs>
		<path id="SVGID_19_" d="M59.708,27.111c0.812,2.542,1.252,5.249,1.252,8.06c0,0.547-0.023,1.091-0.055,1.63
			c-0.186-3.041-0.887-5.944-2.014-8.621c-8.896,11.321-22.699,18.592-38.203,18.592c-4.235,0-8.342-0.545-12.258-1.564
			c3.951,10.171,13.665,17.463,25.137,17.856h0.001c0.045,0.001,0.089,0.002,0.135,0.004h0.005c0.044,0.002,0.088,0.003,0.132,0.004
			c0.002,0,0.005,0,0.006,0c0.023,0.001,0.044,0.001,0.066,0.002h0.004c0.02,0,0.039,0.001,0.06,0.001h0.01
			c0.022,0,0.042,0.001,0.063,0.001c0.003,0,0.007,0,0.01,0c0.018,0,0.038,0.001,0.056,0.001c0.002,0,0.007,0,0.009,0
			c0.021,0,0.042,0.001,0.063,0.001c0.003,0,0.008,0,0.01,0c0.019,0,0.038,0.001,0.057,0.001h0.009c0.02,0,0.041,0,0.061,0h0.014
			c0.019,0.001,0.037,0.001,0.057,0.001h0.006c0.021,0,0.041,0,0.061,0h0.015h0.062c15.467,0,28.006-12.539,28.006-28.007V35.03
			v-0.013v-0.03v-0.016c0-0.008,0-0.018,0-0.026v-0.017v-0.025v-0.02c0-0.008,0-0.014,0-0.022v-0.02V34.82c0-0.007,0-0.015,0-0.023
			v-0.014c-0.002-0.02-0.002-0.04-0.002-0.059c0-0.002,0-0.004,0-0.006c0-0.011,0-0.022,0-0.032v-0.009c0-0.011,0-0.022,0-0.032
			v-0.009c0-0.011-0.002-0.021-0.002-0.032v-0.008c0-0.012,0-0.023,0-0.034v-0.001c-0.057-3.182-0.646-6.234-1.68-9.072
			C60.489,26.038,60.103,26.579,59.708,27.111"/>
	</defs>
	<clipPath id="SVGID_20_">
		<use xlink:href="#SVGID_19_"  overflow="visible"/>
	</clipPath>
	<g clip-path="url(#SVGID_20_)">
		<defs>
			<rect id="SVGID_21_" x="7.6" y="24.881" width="55.68" height="38.88"/>
		</defs>
		<clipPath id="SVGID_22_">
			<use xlink:href="#SVGID_21_"  overflow="visible"/>
		</clipPath>
		<g transform="matrix(1 0 0 1 4.768372e-07 7.629395e-06)" clip-path="url(#SVGID_22_)">
			
				<image overflow="visible" width="116" height="81" xlink:href="8E82F936780E86DD.jpg"  transform="matrix(0.48 0 0 -0.48 7.6001 63.7607)">
			</image>
		</g>
	</g>
</g>
<g>
	<defs>
		<path id="SVGID_23_" d="M58.892,28.18c1.127,2.677,1.828,5.58,2.014,8.621c0.031-0.539,0.055-1.083,0.055-1.63
			c0-2.811-0.439-5.518-1.252-8.06C59.442,27.471,59.169,27.828,58.892,28.18"/>
	</defs>
	<clipPath id="SVGID_24_">
		<use xlink:href="#SVGID_23_"  overflow="visible"/>
	</clipPath>
	<g clip-path="url(#SVGID_24_)">
		<defs>
			<rect id="SVGID_25_" x="58.001" y="26.32" width="3.84" height="11.04"/>
		</defs>
		<clipPath id="SVGID_26_">
			<use xlink:href="#SVGID_25_"  overflow="visible"/>
		</clipPath>
		<g transform="matrix(1 0 0 1 3.814697e-06 3.814697e-06)" clip-path="url(#SVGID_26_)">
			
				<image overflow="visible" width="8" height="23" xlink:href="8E82F936780E86DF.jpg"  transform="matrix(0.48 0 0 -0.48 58.001 37.3604)">
			</image>
		</g>
	</g>
</g>
<g>
	<defs>
		<path id="SVGID_27_" d="M-0.205,34.364v-0.002V34.364z"/>
	</defs>
	<clipPath id="SVGID_28_">
		<use xlink:href="#SVGID_27_"  overflow="visible"/>
	</clipPath>
	<g clip-path="url(#SVGID_28_)">
		<defs>
			<rect id="SVGID_29_" x="-0.205" y="34.362" width="69.487" height="0.002"/>
		</defs>
		<clipPath id="SVGID_30_">
			<use xlink:href="#SVGID_29_"  overflow="visible"/>
		</clipPath>
		<g clip-path="url(#SVGID_30_)">
			<g>
				<defs>
					<rect id="SVGID_31_" x="34.538" y="-0.38" width="0.002" height="69.487"/>
				</defs>
				<clipPath id="SVGID_32_">
					<use xlink:href="#SVGID_31_"  overflow="visible"/>
				</clipPath>
				<g clip-path="url(#SVGID_32_)">
					<defs>
						<rect id="SVGID_33_" x="34.538" y="-0.38" width="0.002" height="69.487"/>
					</defs>
					<clipPath id="SVGID_34_">
						<use xlink:href="#SVGID_33_"  overflow="visible"/>
					</clipPath>
					<g clip-path="url(#SVGID_34_)">
						
							<image overflow="visible" width="290" height="1" xlink:href="8E82F936780E86DC.jpg"  transform="matrix(0.24 0 0 0.24 -0.2046 34.3623)">
						</image>
					</g>
				</g>
			</g>
		</g>
	</g>
</g>
<g>
	<defs>
		<path id="SVGID_35_" d="M34.54,114.131c0,0-33.264-61.058-34.691-81.657c-0.033,0.626-0.053,1.254-0.053,1.888v0.002
			c0,19.188,34.744,82.958,34.744,82.958s34.743-63.77,34.743-82.958v-0.002c0-0.634-0.02-1.262-0.055-1.888
			C67.804,53.073,34.54,114.131,34.54,114.131"/>
	</defs>
	<clipPath id="SVGID_36_">
		<use xlink:href="#SVGID_35_"  overflow="visible"/>
	</clipPath>
	<g clip-path="url(#SVGID_36_)">
		<defs>
			<rect id="SVGID_37_" x="-1.04" y="31.601" width="71.039" height="86.399"/>
		</defs>
		<clipPath id="SVGID_38_">
			<use xlink:href="#SVGID_37_"  overflow="visible"/>
		</clipPath>
		<g transform="matrix(1 0 0 1 0 7.629395e-06)" clip-path="url(#SVGID_38_)">
			
				<image overflow="visible" width="148" height="180" xlink:href="8E82F936780E86D4.jpg"  transform="matrix(0.48 0 0 -0.48 -1.04 118)">
			</image>
		</g>
	</g>
</g>
<rect x="33.912" y="36.588" fill="#434B61" width="1.492" height="13.413"/>
<rect x="41.736" y="17.882" transform="matrix(-0.7071 -0.7071 0.7071 -0.7071 54.286 74.0558)" fill="#434B61" width="1.489" height="15.807"/>
<rect x="24.97" y="32.012" transform="matrix(-0.7076 -0.7066 0.7066 -0.7076 13.8445 90.828)" fill="#434B61" width="1.49" height="21.075"/>
<rect x="21.783" y="25.785" transform="matrix(-0.7071 -0.7071 0.7071 -0.7071 28.319 64.7897)" fill="#434B61" width="11.591" height="1.49"/>
<rect x="33.833" y="39.941" transform="matrix(-0.7071 -0.7071 0.7071 -0.7071 42.4765 98.9688)" fill="#434B61" width="15.805" height="1.492"/>
<g>
	<defs>
		<rect id="SVGID_39_" x="-0.205" y="-0.38" width="69.487" height="117.702"/>
	</defs>
	<clipPath id="SVGID_40_">
		<use xlink:href="#SVGID_39_"  overflow="visible"/>
	</clipPath>
	<path clip-path="url(#SVGID_40_)" fill="#42B05B" d="M49.56,15.726c2.057,0,3.725,1.668,3.725,3.726
		c0,2.057-1.668,3.725-3.725,3.725c-2.059,0-3.727-1.668-3.727-3.725C45.833,17.394,47.501,15.726,49.56,15.726"/>
	<path clip-path="url(#SVGID_40_)" fill="#7483BF" d="M34.657,47.766c2.057,0,3.725,1.668,3.725,3.726
		c0,2.057-1.668,3.725-3.725,3.725c-2.059,0-3.726-1.668-3.726-3.725C30.932,49.434,32.599,47.766,34.657,47.766"/>
	<path clip-path="url(#SVGID_40_)" fill="#6CC5A4" d="M17.519,46.275c2.058,0,3.726,1.668,3.726,3.726
		c0,2.057-1.668,3.725-3.726,3.725s-3.726-1.668-3.726-3.725C13.793,47.943,15.461,46.275,17.519,46.275"/>
	<path clip-path="url(#SVGID_40_)" fill="#D6594A" d="M22.734,19.453c1.235,0,2.235,1,2.235,2.234c0,1.235-1,2.235-2.235,2.235
		c-1.235,0-2.235-1-2.235-2.235C20.5,20.453,21.5,19.453,22.734,19.453"/>
	<path clip-path="url(#SVGID_40_)" fill="#EABA1F" d="M46.577,43.295c1.236,0,2.236,1.002,2.236,2.235c0,1.236-1,2.236-2.236,2.236
		c-1.232,0-2.232-1-2.232-2.236C44.345,44.297,45.345,43.295,46.577,43.295"/>
	<path clip-path="url(#SVGID_40_)" fill="#4B6FAC" d="M34.657,28.393c2.881,0,5.217,2.336,5.217,5.216
		c0,2.881-2.336,5.215-5.217,5.215s-5.216-2.334-5.216-5.215C29.441,30.729,31.776,28.393,34.657,28.393"/>
</g>
</svg>
