<?xml version="1.0" encoding="utf-8"?>
<!-- Generator: Adobe Illustrator 16.0.0, SVG Export Plug-In . SVG Version: 6.00 Build 0)  -->
<!DOCTYPE svg PUBLIC "-//W3C//DTD SVG 1.1//EN" "http://www.w3.org/Graphics/SVG/1.1/DTD/svg11.dtd">
<svg version="1.1" id="Layer_1" xmlns="http://www.w3.org/2000/svg" xmlns:xlink="http://www.w3.org/1999/xlink" x="0px" y="0px"
	 width="70px" height="118px" viewBox="0 0 70 118" enable-background="new 0 0 70 118" xml:space="preserve">
<g>
	<defs>
		<rect id="SVGID_1_" x="-0.204" width="69.487" height="117.702"/>
	</defs>
	<clipPath id="SVGID_2_">
		<use xlink:href="#SVGID_1_"  overflow="visible"/>
	</clipPath>
	<path clip-path="url(#SVGID_2_)" fill="#2783C5" d="M34.54,0C15.352,0-0.202,15.555-0.204,34.743c0-0.634,0.02-1.263,0.053-1.888
		c1.427,20.598,34.691,81.657,34.691,81.657s33.263-61.059,34.689-81.657c0.033,0.625,0.054,1.254,0.054,1.887
		C69.281,15.555,53.727,0,34.54,0 M1.3,36.649c-0.041-0.68-0.069-1.365-0.069-2.055c0-18.396,14.913-33.309,33.309-33.309
		c18.395,0,33.308,14.913,33.308,33.309c0,0.69-0.028,1.375-0.069,2.055C66.716,19.211,52.244,5.396,34.54,5.396
		C16.835,5.396,2.363,19.211,1.3,36.649 M33.568,63.443C18.55,62.931,6.532,50.596,6.532,35.453
		c0-15.468,12.539-28.007,28.008-28.007c15.297,0,27.729,12.263,28.002,27.495v0.001c0.001,0.011,0.001,0.023,0.001,0.034v0.009
		c0,0.011,0.001,0.021,0.001,0.032v0.009c0,0.01,0,0.021,0,0.031v0.009c0.001,0.01,0.001,0.022,0.001,0.032c0,0.002,0,0.004,0,0.006
		c0,0.02,0,0.039,0.001,0.059v0.015c0,0.007,0,0.016,0,0.022v0.021v0.021c0,0.007,0,0.015,0.001,0.022v0.02v0.024v0.018
		c0,0.008,0,0.017,0,0.026v0.016v0.03v0.013v0.042c0,15.468-12.539,28.008-28.007,28.008h-0.062h-0.014
		c-0.021,0-0.041-0.001-0.062-0.001h-0.007c-0.018,0-0.038,0-0.056,0h-0.014c-0.021,0-0.041,0-0.061-0.001h-0.009
		c-0.018,0-0.038,0-0.057,0c-0.003,0-0.006,0-0.01-0.001c-0.022,0-0.041,0-0.063,0c-0.003,0-0.006,0-0.009-0.001
		c-0.019,0-0.038,0-0.056,0c-0.003-0.001-0.007-0.001-0.01-0.001c-0.021,0-0.042,0-0.063-0.001h-0.01c-0.02,0-0.04-0.001-0.06-0.001
		h-0.004c-0.021-0.001-0.044-0.001-0.066-0.003c-0.002,0-0.003,0-0.005,0c-0.044-0.001-0.089-0.002-0.133-0.003h-0.006
		C33.658,63.446,33.613,63.445,33.568,63.443L33.568,63.443z M69.283,34.744c0,19.188-34.743,82.958-34.743,82.958
		S-0.204,53.932-0.204,34.744c0,19.188,34.744,82.958,34.744,82.958S69.283,53.932,69.283,34.744"/>
</g>
<g>
	<defs>
		<path id="SVGID_3_" d="M34.54,117.702c0,0-34.744-63.77-34.744-82.958C-0.204,53.932,34.54,117.702,34.54,117.702
			s34.743-63.77,34.743-82.958C69.283,53.932,34.54,117.702,34.54,117.702 M6.532,35.453c0-15.468,12.539-28.007,28.008-28.007
			c15.297,0,27.729,12.263,28.002,27.495v0.001c0,0.01,0,0.023,0.001,0.034v0.008c0,0.012,0.001,0.021,0.001,0.032v0.009
			c0,0.01,0,0.022,0,0.032v0.009c0.001,0.01,0.001,0.021,0.001,0.032c0,0.002,0,0.004,0,0.006c0,0.02,0,0.038,0.001,0.059v0.014
			c0,0.008,0,0.017,0,0.023v0.021v0.02c0,0.007,0,0.016,0.001,0.022v0.02v0.025v0.017c0,0.009,0,0.017,0,0.026v0.016v0.03v0.013
			v0.043c0,15.468-12.539,28.007-28.007,28.007h-0.062h-0.015c-0.021,0-0.04,0-0.061,0h-0.006c-0.019,0-0.039,0-0.057-0.001h-0.014
			c-0.02,0-0.041,0-0.061,0h-0.009c-0.019,0-0.038-0.001-0.057-0.001c-0.003,0-0.007,0-0.01,0c-0.022,0-0.041-0.001-0.063-0.001
			c-0.003,0-0.007,0-0.009,0c-0.018,0-0.038-0.001-0.056-0.001c-0.003,0-0.007,0-0.01,0c-0.021,0-0.042-0.001-0.063-0.001h-0.01
			c-0.02,0-0.04-0.001-0.06-0.001h-0.004c-0.021-0.001-0.044-0.001-0.066-0.002c-0.001,0-0.003,0-0.006,0
			c-0.044-0.001-0.088-0.002-0.132-0.004h-0.005c-0.045-0.002-0.09-0.003-0.135-0.004h-0.001
			C18.55,62.931,6.532,50.595,6.532,35.453 M1.232,34.594c0-18.396,14.912-33.309,33.308-33.309
			c18.396,0,33.308,14.913,33.308,33.309c0,0.691-0.027,1.375-0.069,2.055C66.716,19.211,52.244,5.396,34.54,5.396
			c-17.705,0-32.177,13.815-33.239,31.253C1.258,35.969,1.232,35.285,1.232,34.594 M34.54,0C15.353,0-0.202,15.555-0.204,34.742
			c0-0.634,0.02-1.262,0.053-1.888c1.427,20.599,34.691,81.657,34.691,81.657s33.264-61.058,34.688-81.657
			c0.034,0.626,0.055,1.254,0.055,1.888C69.28,15.555,53.727,0,34.54,0z"/>
	</defs>
	<clipPath id="SVGID_4_">
		<use xlink:href="#SVGID_3_"  overflow="visible"/>
	</clipPath>
	<rect x="-0.204" clip-path="url(#SVGID_4_)" fill="#0874B8" width="69.487" height="117.702"/>
</g>
<g>
	<defs>
		<path id="SVGID_5_" d="M34.264,63.459c0.02,0,0.041,0,0.061,0C34.305,63.459,34.284,63.459,34.264,63.459 M34.367,63.46
			c-0.009,0-0.018-0.001-0.028-0.001C34.348,63.459,34.358,63.46,34.367,63.46 M34.255,63.459c-0.019,0-0.038-0.001-0.057-0.001
			C34.217,63.458,34.236,63.459,34.255,63.459 M34.125,63.457c0.011,0,0.021,0,0.031,0C34.146,63.457,34.136,63.457,34.125,63.457
			 M34.188,63.458c-0.011,0-0.021,0-0.032-0.001C34.167,63.458,34.177,63.458,34.188,63.458 M34.116,63.457
			c-0.018,0-0.038-0.001-0.056-0.001C34.078,63.456,34.098,63.457,34.116,63.457 M34.05,63.456c-0.021,0-0.041-0.001-0.063-0.001
			C34.008,63.455,34.029,63.456,34.05,63.456 M33.917,63.454c0.01,0,0.02,0,0.03,0C33.937,63.454,33.927,63.454,33.917,63.454
			 M33.977,63.455c-0.01,0-0.02,0-0.03-0.001C33.957,63.455,33.966,63.455,33.977,63.455 M33.913,63.454
			c-0.011-0.001-0.021-0.001-0.033-0.001C33.892,63.453,33.902,63.453,33.913,63.454 M33.88,63.453
			c-0.011,0-0.022-0.001-0.033-0.001C33.858,63.452,33.869,63.453,33.88,63.453 M33.841,63.452
			c-0.044-0.001-0.088-0.002-0.132-0.004C33.753,63.45,33.797,63.451,33.841,63.452 M33.704,63.448
			c-0.045-0.002-0.09-0.003-0.135-0.004C33.614,63.445,33.658,63.446,33.704,63.448 M33.568,63.444
			c-0.04-0.001-0.079-0.003-0.117-0.005C33.489,63.441,33.528,63.443,33.568,63.444 M33.451,63.439
			c-0.012,0-0.023-0.001-0.035-0.001C33.427,63.438,33.439,63.439,33.451,63.439 M33.416,63.438
			c-0.018-0.001-0.038-0.002-0.057-0.002C33.378,63.437,33.397,63.438,33.416,63.438 M33.359,63.437
			c-0.019-0.001-0.038-0.002-0.057-0.002C33.321,63.435,33.34,63.436,33.359,63.437 M33.302,63.435
			c-0.005-0.001-0.011-0.001-0.017-0.001C33.291,63.434,33.296,63.434,33.302,63.435 M33.285,63.434
			c-0.022-0.001-0.046-0.004-0.069-0.005C33.239,63.43,33.262,63.433,33.285,63.434 M33.216,63.429c-0.002,0-0.005,0-0.007,0
			C33.211,63.429,33.214,63.429,33.216,63.429 M33.209,63.429c-0.008,0-0.015,0-0.022-0.001
			C33.194,63.429,33.201,63.429,33.209,63.429 M33.187,63.428c-0.013-0.001-0.026-0.001-0.04-0.001
			C33.16,63.427,33.174,63.427,33.187,63.428 M33.147,63.427c-0.018-0.001-0.036-0.002-0.054-0.003
			C33.111,63.425,33.129,63.426,33.147,63.427 M33.093,63.424c-0.018-0.001-0.036-0.002-0.055-0.004
			C33.056,63.422,33.075,63.423,33.093,63.424 M33.038,63.42c-0.01,0-0.019-0.001-0.029-0.001
			C33.019,63.419,33.028,63.42,33.038,63.42 M33.009,63.419c-0.028-0.001-0.057-0.003-0.085-0.005
			C32.952,63.416,32.98,63.418,33.009,63.419 M32.924,63.414c-0.015-0.001-0.03-0.002-0.046-0.003
			C32.894,63.412,32.909,63.413,32.924,63.414 M32.878,63.411c-0.017-0.001-0.034-0.001-0.051-0.002
			C32.844,63.41,32.861,63.41,32.878,63.411 M32.827,63.409c-0.017-0.001-0.034-0.002-0.051-0.003
			C32.792,63.407,32.809,63.408,32.827,63.409 M32.776,63.406c-0.014-0.001-0.028-0.002-0.042-0.003
			C32.748,63.404,32.762,63.405,32.776,63.406 M32.734,63.403c-0.025-0.002-0.049-0.003-0.075-0.005
			C32.685,63.4,32.709,63.401,32.734,63.403 M32.659,63.398c-0.014-0.001-0.03-0.002-0.045-0.003
			C32.629,63.396,32.644,63.397,32.659,63.398 M32.614,63.396c-0.035-0.003-0.069-0.004-0.104-0.008
			C32.545,63.392,32.579,63.393,32.614,63.396 M32.51,63.388c-0.006-0.001-0.013-0.001-0.02-0.001
			C32.497,63.387,32.503,63.387,32.51,63.388 M32.49,63.387c-0.006-0.001-0.013-0.001-0.02-0.002
			C32.477,63.386,32.484,63.386,32.49,63.387 M32.47,63.385c-0.026-0.002-0.051-0.004-0.077-0.006
			C32.418,63.381,32.444,63.383,32.47,63.385 M32.393,63.379c-0.003,0-0.005,0-0.008-0.001
			C32.388,63.379,32.39,63.379,32.393,63.379 M32.385,63.378c-0.003,0-0.005,0-0.008,0C32.38,63.378,32.382,63.378,32.385,63.378
			 M32.377,63.378L32.377,63.378L32.377,63.378 M32.376,63.378c-0.007-0.001-0.014-0.001-0.021-0.002
			C32.362,63.377,32.369,63.377,32.376,63.378 M32.355,63.376c-0.002,0-0.005,0-0.007-0.001
			C32.35,63.376,32.353,63.376,32.355,63.376 M32.348,63.375c-0.007,0-0.013,0-0.02-0.001
			C32.335,63.375,32.342,63.375,32.348,63.375 M32.328,63.374c-0.004,0-0.007,0-0.011-0.001
			C32.321,63.374,32.324,63.374,32.328,63.374 M32.317,63.373c-0.006,0-0.013,0-0.019-0.001
			C32.304,63.373,32.311,63.373,32.317,63.373 M32.298,63.372c-0.016-0.001-0.033-0.003-0.05-0.004
			C32.264,63.369,32.281,63.371,32.298,63.372 M32.248,63.368c-0.003,0-0.005,0-0.008-0.001
			C32.243,63.368,32.246,63.368,32.248,63.368 M32.24,63.367c-0.005,0-0.011-0.001-0.016-0.001
			C32.229,63.366,32.235,63.367,32.24,63.367 M32.224,63.366c-0.005-0.001-0.011-0.001-0.016-0.002
			C32.213,63.365,32.218,63.365,32.224,63.366 M32.208,63.364c-0.003,0-0.006,0-0.008,0C32.202,63.364,32.205,63.364,32.208,63.364
			 M32.2,63.364c-0.023-0.002-0.045-0.004-0.068-0.006C32.155,63.36,32.177,63.362,32.2,63.364 M32.132,63.358
			c-0.015-0.002-0.031-0.002-0.047-0.004C32.101,63.356,32.117,63.356,32.132,63.358 M32.085,63.354
			c-0.033-0.003-0.066-0.006-0.1-0.009C32.019,63.349,32.052,63.352,32.085,63.354 M31.985,63.346
			c-0.015-0.002-0.031-0.004-0.046-0.005C31.954,63.342,31.969,63.344,31.985,63.346 M31.939,63.341
			c-0.025-0.003-0.049-0.004-0.074-0.007C31.889,63.337,31.914,63.338,31.939,63.341 M31.865,63.334
			c-0.015-0.001-0.028-0.003-0.042-0.004C31.837,63.331,31.85,63.333,31.865,63.334 M31.823,63.33
			c-0.035-0.003-0.069-0.007-0.103-0.01C31.754,63.323,31.788,63.327,31.823,63.33 M31.72,63.32
			c-0.007-0.001-0.014-0.001-0.021-0.002C31.706,63.319,31.713,63.319,31.72,63.32 M31.699,63.318
			c-0.007-0.001-0.014-0.002-0.021-0.002C31.684,63.316,31.692,63.317,31.699,63.318 M31.678,63.316
			c-0.027-0.003-0.054-0.005-0.081-0.008C31.624,63.312,31.651,63.313,31.678,63.316 M31.597,63.309
			c-0.013-0.003-0.026-0.004-0.039-0.006C31.571,63.305,31.584,63.306,31.597,63.309 M31.558,63.303
			c-0.033-0.003-0.068-0.007-0.102-0.011C31.489,63.296,31.525,63.3,31.558,63.303 M31.456,63.292
			c-0.012-0.001-0.024-0.002-0.038-0.004C31.432,63.29,31.443,63.291,31.456,63.292 M31.418,63.288
			c-0.029-0.004-0.061-0.006-0.091-0.01C31.357,63.282,31.388,63.284,31.418,63.288 M31.327,63.278
			c-0.012-0.002-0.024-0.003-0.036-0.004C31.303,63.275,31.315,63.276,31.327,63.278 M31.291,63.274
			c-0.032-0.004-0.064-0.008-0.097-0.012C31.227,63.267,31.259,63.271,31.291,63.274 M31.194,63.263
			c-0.012-0.002-0.025-0.004-0.037-0.006C31.168,63.259,31.182,63.261,31.194,63.263 M31.157,63.257
			c-0.036-0.003-0.069-0.008-0.104-0.012C31.088,63.249,31.121,63.254,31.157,63.257 M31.053,63.245
			c-0.004-0.001-0.008-0.001-0.012-0.002C31.045,63.244,31.049,63.244,31.053,63.245 M31.041,63.243c-0.004,0-0.007,0-0.011-0.001
			C31.033,63.243,31.037,63.243,31.041,63.243 M31.03,63.242c-0.033-0.004-0.067-0.008-0.1-0.013
			C30.963,63.234,30.996,63.238,31.03,63.242 M30.93,63.229c-0.005,0-0.01-0.001-0.016-0.001
			C30.919,63.229,30.924,63.229,30.93,63.229 M30.914,63.229c-0.005-0.001-0.009-0.002-0.015-0.002
			C30.904,63.227,30.909,63.228,30.914,63.229 M30.899,63.227c-0.038-0.007-0.075-0.011-0.112-0.016
			C30.824,63.216,30.861,63.22,30.899,63.227 M30.787,63.211c-0.007-0.001-0.012-0.001-0.018-0.002
			C30.775,63.21,30.78,63.21,30.787,63.211 M30.769,63.209c-0.035-0.006-0.07-0.01-0.105-0.015
			C30.698,63.199,30.734,63.203,30.769,63.209 M30.664,63.194c-0.007,0-0.014-0.002-0.021-0.003
			C30.649,63.192,30.657,63.194,30.664,63.194 M30.519,63.174c0.001,0,0.002,0,0.003,0C30.521,63.174,30.52,63.174,30.519,63.174
			 M30.643,63.191c-0.041-0.006-0.081-0.012-0.121-0.018C30.562,63.18,30.602,63.186,30.643,63.191 M30.519,63.174
			c-0.041-0.007-0.082-0.012-0.125-0.018C30.436,63.162,30.478,63.167,30.519,63.174 M30.394,63.156
			c-0.002-0.001-0.003-0.001-0.005-0.001C30.391,63.155,30.392,63.155,30.394,63.156 M30.389,63.155
			c-0.037-0.006-0.074-0.011-0.111-0.018C30.315,63.145,30.352,63.149,30.389,63.155 M30.278,63.138
			c-0.004-0.001-0.009-0.001-0.014-0.002C30.269,63.137,30.274,63.137,30.278,63.138 M34.54,63.46
			c15.468,0,28.007-12.539,28.007-28.007C62.547,50.921,50.008,63.46,34.54,63.46 M62.547,35.41v-0.013V35.41z M62.547,35.367
			v-0.016V35.367z M62.547,35.325v-0.017V35.325z M62.547,35.283v-0.02V35.283z M62.546,35.241v-0.02V35.241z M62.546,35.2
			c0-0.006,0-0.015,0-0.023C62.546,35.185,62.546,35.193,62.546,35.2 M62.546,35.163c0-0.005,0-0.009-0.001-0.014
			C62.546,35.154,62.546,35.158,62.546,35.163 M62.545,35.149c0,0,0-0.001,0-0.002C62.545,35.148,62.545,35.149,62.545,35.149
			 M62.545,35.147c0-0.005,0-0.009,0-0.014C62.545,35.138,62.545,35.142,62.545,35.147 M62.545,35.133c0-0.01,0-0.02,0-0.029
			C62.545,35.113,62.545,35.123,62.545,35.133 M62.545,35.098c0-0.011,0-0.022-0.001-0.032
			C62.545,35.076,62.545,35.087,62.545,35.098 M62.544,35.057c0-0.01,0-0.022,0-0.032C62.544,35.035,62.544,35.046,62.544,35.057
			 M62.544,35.016c0-0.011-0.001-0.021-0.001-0.032C62.543,34.996,62.544,35.005,62.544,35.016 M62.543,34.976
			c0-0.006-0.001-0.012-0.001-0.017C62.542,34.964,62.543,34.97,62.543,34.976 M62.542,34.959c0-0.006,0-0.012,0-0.017
			C62.542,34.948,62.542,34.953,62.542,34.959 M62.542,34.941c-0.001-0.05-0.002-0.099-0.003-0.148
			C62.54,34.842,62.541,34.891,62.542,34.941 M62.539,34.793c0-0.001,0-0.002,0-0.002C62.539,34.792,62.539,34.792,62.539,34.793
			 M6.532,35.453c0,14.013,10.294,25.623,23.732,27.683c-10.008-1.534-18.268-8.37-21.833-17.547
			c3.916,1.019,8.023,1.564,12.258,1.564c15.504,0,29.306-7.271,38.204-18.592C54.89,19.059,45.496,12.39,34.54,12.39
			c-14.045,0-25.523,10.959-26.367,24.791c-0.033-0.539-0.055-1.083-0.055-1.63C8.118,20.959,19.947,9.13,34.54,9.13
			c11.781,0,21.761,7.711,25.169,18.361c0.395-0.532,0.78-1.073,1.154-1.622c1.018,2.794,1.603,5.795,1.676,8.922
			C62.188,19.629,49.786,7.446,34.54,7.446C19.071,7.446,6.532,19.985,6.532,35.453"/>
	</defs>
	<clipPath id="SVGID_6_">
		<use xlink:href="#SVGID_5_"  overflow="visible"/>
	</clipPath>
	<g clip-path="url(#SVGID_6_)">
		<g>
			<defs>
				<rect id="SVGID_7_" x="6.532" y="7.447" width="56.015" height="56.014"/>
			</defs>
			<clipPath id="SVGID_8_">
				<use xlink:href="#SVGID_7_"  overflow="visible"/>
			</clipPath>
			<g clip-path="url(#SVGID_8_)">
				<defs>
					<rect id="SVGID_9_" x="6.532" y="7.447" width="56.015" height="56.014"/>
				</defs>
				<clipPath id="SVGID_10_">
					<use xlink:href="#SVGID_9_"  overflow="visible"/>
				</clipPath>
				<g clip-path="url(#SVGID_10_)">
					
						<image overflow="visible" width="234" height="234" xlink:href="AFA05072A276F130.jpg"  transform="matrix(0.24 0 0 0.24 6.5322 7.4473)">
					</image>
				</g>
			</g>
		</g>
	</g>
</g>
<g>
	<defs>
		<path id="SVGID_11_" d="M8.118,35.551c0,0.547,0.022,1.091,0.055,1.63C9.017,23.349,20.495,12.39,34.54,12.39
			c10.956,0,20.35,6.669,24.353,16.17c0.277-0.352,0.55-0.709,0.816-1.069C56.301,16.841,46.321,9.13,34.54,9.13
			C19.947,9.13,8.118,20.959,8.118,35.551"/>
	</defs>
	<clipPath id="SVGID_12_">
		<use xlink:href="#SVGID_11_"  overflow="visible"/>
	</clipPath>
	<g clip-path="url(#SVGID_12_)">
		<g>
			<defs>
				<rect id="SVGID_13_" x="8.118" y="9.131" width="51.591" height="28.051"/>
			</defs>
			<clipPath id="SVGID_14_">
				<use xlink:href="#SVGID_13_"  overflow="visible"/>
			</clipPath>
			<g clip-path="url(#SVGID_14_)">
				<defs>
					<rect id="SVGID_15_" x="8.118" y="9.132" width="51.591" height="28.05"/>
				</defs>
				<clipPath id="SVGID_16_">
					<use xlink:href="#SVGID_15_"  overflow="visible"/>
				</clipPath>
				<g clip-path="url(#SVGID_16_)">
					
						<image overflow="visible" width="215" height="117" xlink:href="AFA05072A276F131.jpg"  transform="matrix(0.24 0 0 0.24 8.1182 9.1318)">
					</image>
				</g>
			</g>
		</g>
	</g>
</g>
<g>
	<defs>
		<path id="SVGID_17_" d="M34.396,63.46h0.006H34.396z M34.463,63.46h0.015H34.463z M34.255,63.459h0.009H34.255z M34.325,63.459
			h0.014H34.325z M34.188,63.458c0.003,0,0.007,0,0.01,0C34.196,63.458,34.191,63.458,34.188,63.458 M34.116,63.457
			c0.002,0,0.006,0,0.009,0C34.123,63.457,34.118,63.457,34.116,63.457 M34.05,63.456c0.003,0,0.007,0,0.01,0
			C34.057,63.456,34.053,63.456,34.05,63.456 M33.977,63.455h0.01H33.977z M33.913,63.454h0.003H33.913z M33.841,63.452
			c0.003,0,0.005,0,0.006,0C33.846,63.452,33.843,63.452,33.841,63.452 M33.704,63.448h0.005H33.704z M33.568,63.444L33.568,63.444
			L33.568,63.444z M62.547,35.453V35.41V35.453z M62.547,35.397v-0.03V35.397z M62.547,35.351c0-0.009,0-0.017,0-0.026
			C62.547,35.333,62.547,35.343,62.547,35.351 M62.547,35.308v-0.025V35.308z M62.547,35.263c0-0.003-0.001-0.006-0.001-0.008
			C62.546,35.257,62.547,35.26,62.547,35.263 M62.546,35.255c0,0,0,0,0-0.001C62.546,35.255,62.546,35.255,62.546,35.255
			 M62.546,35.254c0-0.001,0-0.002,0-0.003C62.546,35.252,62.546,35.253,62.546,35.254 M62.546,35.251c0-0.003,0-0.006,0-0.01
			C62.546,35.245,62.546,35.248,62.546,35.251 M62.546,35.221V35.2V35.221z M62.546,35.177v-0.014V35.177z M62.545,35.104
			c0-0.002,0-0.004,0-0.006C62.545,35.1,62.545,35.102,62.545,35.104 M62.544,35.066v-0.009V35.066z M62.544,35.025v-0.009V35.025z
			 M62.543,34.984v-0.008V34.984z M62.542,34.942v-0.001V34.942z"/>
	</defs>
	<clipPath id="SVGID_18_">
		<use xlink:href="#SVGID_17_"  overflow="visible"/>
	</clipPath>
	<g clip-path="url(#SVGID_18_)">
		<defs>
			<rect id="SVGID_19_" x="33.041" y="34.381" width="30.24" height="29.76"/>
		</defs>
		<clipPath id="SVGID_20_">
			<use xlink:href="#SVGID_19_"  overflow="visible"/>
		</clipPath>
		<g transform="matrix(1 0 0 1 3.814697e-06 7.629395e-06)" clip-path="url(#SVGID_20_)">
			
				<image overflow="visible" width="63" height="62" xlink:href="AFA05072A276F137.jpg"  transform="matrix(0.48 0 0 -0.48 33.0405 64.1406)">
			</image>
		</g>
	</g>
</g>
<g>
	<defs>
		<path id="SVGID_21_" d="M59.709,27.491c0.812,2.542,1.252,5.249,1.252,8.06c0,0.547-0.023,1.091-0.055,1.63
			c-0.186-3.041-0.887-5.944-2.014-8.621c-8.897,11.321-22.699,18.592-38.204,18.592c-4.235,0-8.342-0.545-12.258-1.564
			c3.951,10.171,13.665,17.463,25.137,17.856h0.001c0.045,0.001,0.089,0.002,0.135,0.004h0.005c0.044,0.002,0.088,0.003,0.132,0.004
			c0.002,0,0.005,0,0.006,0c0.023,0.001,0.044,0.001,0.066,0.002h0.004c0.02,0,0.039,0.001,0.06,0.001h0.01
			c0.022,0,0.042,0.001,0.063,0.001c0.003,0,0.007,0,0.01,0c0.018,0,0.038,0.001,0.056,0.001c0.002,0,0.007,0,0.009,0
			c0.021,0,0.042,0.001,0.063,0.001c0.003,0,0.008,0,0.01,0c0.019,0,0.038,0.001,0.057,0.001h0.009c0.02,0,0.041,0,0.061,0h0.014
			c0.019,0.001,0.037,0.001,0.057,0.001h0.006c0.021,0,0.041,0,0.061,0h0.015h0.062c15.468,0,28.007-12.539,28.007-28.007V35.41
			v-0.013v-0.03v-0.016c0-0.008,0-0.018,0-0.026v-0.017v-0.025v-0.02c-0.001-0.008-0.001-0.014-0.001-0.022v-0.02V35.2
			c0-0.007,0-0.015,0-0.023v-0.014c-0.001-0.02-0.001-0.04-0.001-0.059c0-0.002,0-0.004,0-0.006c0-0.011,0-0.022-0.001-0.032v-0.009
			c0-0.011,0-0.022,0-0.032v-0.009c0-0.011-0.001-0.021-0.001-0.032v-0.008c-0.001-0.012-0.001-0.023-0.001-0.034v-0.001
			c-0.057-3.182-0.646-6.234-1.679-9.072C60.489,26.418,60.104,26.959,59.709,27.491"/>
	</defs>
	<clipPath id="SVGID_22_">
		<use xlink:href="#SVGID_21_"  overflow="visible"/>
	</clipPath>
	<g clip-path="url(#SVGID_22_)">
		<defs>
			<rect id="SVGID_23_" x="7.601" y="25.261" width="55.68" height="38.88"/>
		</defs>
		<clipPath id="SVGID_24_">
			<use xlink:href="#SVGID_23_"  overflow="visible"/>
		</clipPath>
		<g transform="matrix(1 0 0 1 4.768372e-07 7.629395e-06)" clip-path="url(#SVGID_24_)">
			
				<image overflow="visible" width="116" height="81" xlink:href="AFA05072A276F132.jpg"  transform="matrix(0.48 0 0 -0.48 7.6006 64.1406)">
			</image>
		</g>
	</g>
</g>
<g>
	<defs>
		<path id="SVGID_25_" d="M58.893,28.56c1.127,2.677,1.828,5.58,2.014,8.621c0.031-0.539,0.055-1.083,0.055-1.63
			c0-2.811-0.439-5.518-1.252-8.06C59.442,27.851,59.17,28.208,58.893,28.56"/>
	</defs>
	<clipPath id="SVGID_26_">
		<use xlink:href="#SVGID_25_"  overflow="visible"/>
	</clipPath>
	<g clip-path="url(#SVGID_26_)">
		<defs>
			<rect id="SVGID_27_" x="58.001" y="26.7" width="3.84" height="11.04"/>
		</defs>
		<clipPath id="SVGID_28_">
			<use xlink:href="#SVGID_27_"  overflow="visible"/>
		</clipPath>
		<g transform="matrix(1 0 0 1 3.814697e-06 0)" clip-path="url(#SVGID_28_)">
			
				<image overflow="visible" width="8" height="23" xlink:href="AFA05072A276F133.jpg"  transform="matrix(0.48 0 0 -0.48 58.001 37.7402)">
			</image>
		</g>
	</g>
</g>
<g>
	<defs>
		<path id="SVGID_29_" d="M-0.204,34.744v-0.002V34.744z"/>
	</defs>
	<clipPath id="SVGID_30_">
		<use xlink:href="#SVGID_29_"  overflow="visible"/>
	</clipPath>
	<g clip-path="url(#SVGID_30_)">
		<defs>
			<rect id="SVGID_31_" x="-0.204" y="34.742" width="69.487" height="0.002"/>
		</defs>
		<clipPath id="SVGID_32_">
			<use xlink:href="#SVGID_31_"  overflow="visible"/>
		</clipPath>
		<g clip-path="url(#SVGID_32_)">
			<g>
				<defs>
					<rect id="SVGID_33_" x="34.539" y="0" width="0.002" height="69.487"/>
				</defs>
				<clipPath id="SVGID_34_">
					<use xlink:href="#SVGID_33_"  overflow="visible"/>
				</clipPath>
				<g clip-path="url(#SVGID_34_)">
					<defs>
						<rect id="SVGID_35_" x="34.539" y="0" width="0.002" height="69.487"/>
					</defs>
					<clipPath id="SVGID_36_">
						<use xlink:href="#SVGID_35_"  overflow="visible"/>
					</clipPath>
					<g clip-path="url(#SVGID_36_)">
						
							<image overflow="visible" width="290" height="1" xlink:href="AFA05072A276F13E.jpg"  transform="matrix(0.24 0 0 0.24 -0.2041 34.7432)">
						</image>
					</g>
				</g>
			</g>
		</g>
	</g>
</g>
<g>
	<defs>
		<path id="SVGID_37_" d="M34.54,114.511c0,0-33.264-61.058-34.691-81.657c-0.033,0.626-0.053,1.254-0.053,1.888v0.002
			c0,19.188,34.744,82.958,34.744,82.958s34.743-63.77,34.743-82.958v-0.002c0-0.634-0.021-1.262-0.055-1.888
			C67.804,53.453,34.54,114.511,34.54,114.511"/>
	</defs>
	<clipPath id="SVGID_38_">
		<use xlink:href="#SVGID_37_"  overflow="visible"/>
	</clipPath>
	<g clip-path="url(#SVGID_38_)">
		<defs>
			<rect id="SVGID_39_" x="-1.04" y="31.98" width="71.04" height="86.399"/>
		</defs>
		<clipPath id="SVGID_40_">
			<use xlink:href="#SVGID_39_"  overflow="visible"/>
		</clipPath>
		<g transform="matrix(1 0 0 1 -1.192093e-07 7.629395e-06)" clip-path="url(#SVGID_40_)">
			
				<image overflow="visible" width="148" height="180" xlink:href="AFA05072A276F13F.jpg"  transform="matrix(0.48 0 0 -0.48 -1.0396 118.3799)">
			</image>
		</g>
	</g>
</g>
<g>
	<defs>
		<rect id="SVGID_41_" x="-0.204" width="69.487" height="117.702"/>
	</defs>
	<clipPath id="SVGID_42_">
		<use xlink:href="#SVGID_41_"  overflow="visible"/>
	</clipPath>
	<path clip-path="url(#SVGID_42_)" fill="#4DA0D8" d="M59.053,35.228c-0.052-0.002-0.104-0.002-0.157-0.002
		c-3.001,0-5.647,1.988-6.475,4.886c-1.419,4.97-5.075,8.618-9.51,10.26c-3.616,1.34-7.754,1.344-11.611-0.361
		c-0.384-0.169-0.796-0.257-1.208-0.257c-0.26,0-0.521,0.036-0.775,0.107c-3.653,1.022-5.858,3.298-6.868,4.599
		c-0.443,0.571-1.233,0.734-1.872,0.399c-4.466-2.342-5.561-6.099-5.794-8.351c-0.097-0.93,0.674-1.72,1.605-1.641
		c4.174,0.35,8.078-1.316,9.407-1.96c0.09-0.043,0.17-0.083,0.235-0.116c0.094-0.047,0.161-0.083,0.203-0.105
		c0.029-0.015,0.044-0.025,0.044-0.025c-0.458-0.275-0.898-0.554-1.32-0.838c-0.781-0.521-1.501-1.056-2.162-1.601
		c-0.917-0.75-1.722-1.522-2.429-2.302c-0.554-0.614-1.048-1.234-1.485-1.857c-0.862-1.228-1.507-2.469-1.975-3.701
		c-0.276-0.723-0.49-1.441-0.654-2.151c-0.258-1.136-0.384-2.25-0.412-3.326c-0.018-0.665,0.003-1.312,0.053-1.941
		c0.012-0.143,0.025-0.285,0.038-0.427c0.121-1.174,0.342-2.275,0.609-3.27c0.181-0.678,0.383-1.309,0.592-1.882
		c0.781-2.156,1.627-3.491,1.627-3.491c1.647,2.396,3.836,3.924,6.174,4.981c4.311,1.945,9.125,2.295,11.978,3.555
		c4.396,1.945,6.967,7.443,6.967,7.443c0.008-0.008,0.015-0.015,0.022-0.021c3.554-3.146,6.16-3.496,7.948-2.944
		c0.509,0.157,0.953,0.389,1.333,0.649c1.203,0.828,1.757,1.947,1.757,1.947C56.165,34.655,59.053,35.228,59.053,35.228"/>
	<path clip-path="url(#SVGID_42_)" fill="#228BCC" d="M53.181,29.538c-0.097-0.015-5.106-0.798-7.45,5.955l-1.831-3.66
		c3.553-3.147,6.161-3.495,7.946-2.945C52.356,29.046,52.801,29.278,53.181,29.538"/>
	<path clip-path="url(#SVGID_42_)" fill="#228BCC" d="M27.832,43.446c6.71,1.66,12.631,1.887,12.56-2.512
		c-0.153-9.603-22.264-15.822-24.461-16.417c-0.559,5.481,1.062,12.564,10.345,18.145c0,0-0.015,0.009-0.044,0.024
		c-0.041,0.022-0.109,0.058-0.202,0.105c-1.036,0.524-5.192,2.452-9.652,2.076c-0.929-0.079-1.692,0.717-1.595,1.643
		c0.233,2.25,1.329,6.007,5.793,8.349c0.64,0.335,1.43,0.172,1.872-0.399c1.011-1.301,3.217-3.577,6.868-4.599
		c0.657-0.185,1.359-0.125,1.983,0.15c3.858,1.705,7.996,1.701,11.612,0.361C34.747,49.921,28.672,44.266,27.832,43.446"/>
	<path clip-path="url(#SVGID_42_)" fill="#086AA3" d="M23.312,24.588c-0.145,0.326-0.465,0.522-0.801,0.522
		c-0.119,0-0.239-0.024-0.354-0.075c-2.468-1.091-4.397-2.639-5.618-3.788c0.182-0.678,0.383-1.309,0.593-1.882
		c0.278,0.287,0.634,0.635,1.062,1.015c1.116,0.988,2.718,2.19,4.672,3.053C23.307,23.628,23.508,24.144,23.312,24.588"/>
	<path clip-path="url(#SVGID_42_)" fill="#086AA3" d="M22.305,28.051c-0.043,0.455-0.424,0.796-0.87,0.796
		c-0.028,0-0.056-0.002-0.084-0.006c-1.601-0.152-3.81-1.106-5.512-1.956c-0.017-0.665,0.004-1.312,0.054-1.941
		c1.743,0.911,4.138,2.014,5.623,2.154C21.998,27.144,22.351,27.57,22.305,28.051"/>
	<path clip-path="url(#SVGID_42_)" fill="#086AA3" d="M21.197,33.218c-0.116,0.009-0.236,0.013-0.358,0.013
		c-1.243,0-2.714-0.419-3.933-0.868c-0.277-0.723-0.49-1.442-0.654-2.151c1.29,0.563,3.217,1.267,4.572,1.267
		c0.085,0,0.168-0.002,0.249-0.007c0.484-0.036,0.901,0.329,0.935,0.81C22.043,32.765,21.68,33.184,21.197,33.218"/>
	<path clip-path="url(#SVGID_42_)" fill="#086AA3" d="M23.167,37.755c-0.553,0.133-1.273,0.18-2.023,0.18
		c-0.257,0-0.519-0.006-0.778-0.015c-0.554-0.614-1.049-1.234-1.486-1.857c1.329,0.121,2.995,0.2,3.882-0.012
		c0.471-0.112,0.942,0.18,1.054,0.65C23.928,37.171,23.638,37.644,23.167,37.755"/>
	<path clip-path="url(#SVGID_42_)" fill="#086AA3" d="M26.933,41.441c-0.462,0.18-1.214,0.301-1.976,0.382
		c-0.78-0.521-1.5-1.056-2.162-1.601c1.194-0.05,2.924-0.189,3.506-0.413c0.452-0.176,0.959,0.05,1.133,0.499
		C27.608,40.76,27.384,41.267,26.933,41.441"/>
	<path clip-path="url(#SVGID_42_)" fill="#4E4E4E" d="M50.667,32.439c0.484,0,0.876,0.393,0.876,0.876
		c0,0.485-0.392,0.876-0.876,0.876c-0.483,0-0.874-0.391-0.874-0.876C49.793,32.832,50.184,32.439,50.667,32.439"/>
</g>
</svg>
