<?xml version="1.0" encoding="UTF-8" standalone="no"?>
<!-- Created with Inkscape (http://www.inkscape.org/) -->

<svg
   xmlns:dc="http://purl.org/dc/elements/1.1/"
   xmlns:cc="http://creativecommons.org/ns#"
   xmlns:rdf="http://www.w3.org/1999/02/22-rdf-syntax-ns#"
   xmlns:svg="http://www.w3.org/2000/svg"
   xmlns="http://www.w3.org/2000/svg"
   xmlns:sodipodi="http://sodipodi.sourceforge.net/DTD/sodipodi-0.dtd"
   xmlns:inkscape="http://www.inkscape.org/namespaces/inkscape"
   width="210mm"
   height="170mm"
   viewBox="0 0 744.09449 602.3622"
   id="svg2"
   version="1.1"
   inkscape:version="0.92.4 (5da689c313, 2019-01-14)"
   sodipodi:docname="toolbox.svg"
   inkscape:export-filename="./toolbox.png"
   inkscape:export-xdpi="99.7089"
   inkscape:export-ydpi="99.7089">
  <defs
     id="defs4" />
  <sodipodi:namedview
     id="base"
     pagecolor="#000000"
     bordercolor="#666666"
     borderopacity="1.0"
     inkscape:pageopacity="0"
     inkscape:pageshadow="2"
     inkscape:zoom="0.7"
     inkscape:cx="282.48845"
     inkscape:cy="234.23216"
     inkscape:document-units="px"
     inkscape:current-layer="layer1"
     showgrid="false"
     inkscape:window-width="1920"
     inkscape:window-height="1016"
     inkscape:window-x="0"
     inkscape:window-y="27"
     inkscape:window-maximized="1" />
  <metadata
     id="metadata7">
    <rdf:RDF>
      <cc:Work
         rdf:about="">
        <dc:format>image/svg+xml</dc:format>
        <dc:type
           rdf:resource="http://purl.org/dc/dcmitype/StillImage" />
        <dc:title></dc:title>
      </cc:Work>
    </rdf:RDF>
  </metadata>
  <g
     inkscape:label="Layer 1"
     inkscape:groupmode="layer"
     id="layer1"
     transform="translate(0,-450)">
    <rect
       style="fill:#ffffff;stroke:#2b0000;stroke-width:3.42020655"
       id="rect3336"
       width="161.86551"
       height="150.43694"
       x="104.42873"
       y="522.27643" />
    <rect
       style="fill:#ffffff;stroke:#2b0000;stroke-width:3.42020655"
       id="rect3336-2"
       width="161.86551"
       height="150.43694"
       x="290.49582"
       y="521.14374" />
    <rect
       style="fill:#ffffff;stroke:#2b0000;stroke-width:3.42020655"
       id="rect3336-7"
       width="161.86551"
       height="150.43694"
       x="473.35294"
       y="521.14374" />
    <rect
       style="fill:#ffffff;stroke:#2b0000;stroke-width:3.42020655"
       id="rect3336-0"
       width="161.86551"
       height="150.43694"
       x="105.06725"
       y="690.00085" />
    <rect
       style="fill:#ffffff;stroke:#2b0000;stroke-width:3.42020655"
       id="rect3336-9"
       width="161.86551"
       height="150.43694"
       x="291.06726"
       y="690.00085" />
    <rect
       style="fill:#ffffff;stroke:#2b0000;stroke-width:3.42020655"
       id="rect3336-3"
       width="161.86551"
       height="150.43694"
       x="473.06726"
       y="690.00085" />
    <rect
       style="fill:#ffffff;stroke:#2b0000;stroke-width:3.42020655"
       id="rect3336-6"
       width="161.86551"
       height="150.43694"
       x="108.2101"
       y="860.00085" />
    <rect
       style="fill:#ffffff;stroke:#2b0000;stroke-width:3.42020655"
       id="rect3336-06"
       width="161.86551"
       height="150.43694"
       x="290.21008"
       y="860.00085" />
    <rect
       style="fill:#ffffff;stroke:#2b0000;stroke-width:3.42020655"
       id="rect3336-26"
       width="161.86551"
       height="150.43694"
       x="474.21008"
       y="858.00085" />
  </g>
</svg>
